[
    {
            "value": "all",
            "name": "All",
            "selected": true
    },
    {
            "value": "general",
            "name": "General"
    },
    {
            "value": "health",
            "name": "Health"
    },
    {
            "value": "entertainment",
            "name": "Entertainment"
    },
    {
            "value": "science",
            "name": "Science"
    },
    {
            "value": "sports",
            "name": "Sports"
    },
    {
            "value": "technology",
            "name": "Technology"
    },
    {
            "value": "business",
            "name": "Business"
    }
]
